%% This work is licensed under a Creative Commons Attribution-ShareAlike 4.0 International License.
%% License information: http://creativecommons.org/licenses/by-sa/4.0/

%% \new FretBoards {
%%   \chordmode {
%%   g1 \override FretBoard.fret-diagram-details.orientation = #'landscape
%%   c1 \override FretBoard.fret-diagram-details.orientation = #'landscape
%%   }
%% }

#(set! fourth-notes-per-time 4)
#(set! tempo 70)

<<
\new Staff
\relative c' {
  \key c \major
  \time 4/4
  \tempo 4 = 70
  %% Compas numbers.
  \override Score.BarNumber.break-visibility = #end-of-line-invisible
  \context Score \applyContext #(set-bar-number-visibility 1)

  \clef "treble"

  r2 c4 <c e g>4 |
  c8 (e) g(e) c4 r4 |

  r2 d4 <d fis a>4 |
  d8(fis) a(fis) d4 r4 |

  r2 e4 <e gis b>4 |
  e8^\markup{\mytime 5 70 4} (gis) b(gis) e4 r4 |

  r2 f4 <f a c>4 |
  f8(a) c(a) f4 r4 |

  r2 g4 <g b d>4 |
  g8^\markup{\mytime 9 70 4}(b) d(b) g4 r4 |

  r2 a4 <a cis e>4 |
  a8(cis) e(cis) a4 r4 |

  r2 b4 <b dis fis>4 |
  b8(dis) fis(dis) b4 r4 |

  r2 c4 <c e g>4 |
  c8(e) g(e) c4 r4 \bar "||"

  r2 c4 <c e g>4 |
  c8^\markup{\mytime 17 70 4} (e) g(e) c4 r4 |

  r2 d4 <d fis a>4 |
  d8(fis) a(fis) d4 r4 |

  r2 e4 <e gis b>4 |
  e8^\markup{\mytime 21 70 4}(gis) b(gis) e4 r4 |

  r2 f4 <f a c>4 |
  f8(a) c(a) f4 r4 |

  r2 g4 <g b d>4 |
  g8^\markup{\mytime 25 70 4}(b) d(b) g4 r4 \bar "|."


}
\new Lyrics \lyricmode {
  "C4"1 "-"1 "D4"1 "-"1 "E4"1 "-"1 "F4"1 "-"1 "G4"1 "-"1
  "A4"1 "-"1 "B4"1 "-"1 "C5"1 "-"1 "C5"1 "-"1 "D5"1 "-"1
  "E5"1 "-"1 "F5"1 "-"1 "G5"1
}
>>

% Local Variables:
% LilyPond-master-file: "../scores/major-triad-no-5th-repeat.ly"
% End:
